<svg width="59" height="65" viewBox="0 0 59 65" fill="none" xmlns="http://www.w3.org/2000/svg">
<g filter="url(#filter0_b)">
<path d="M36.5452 3.60472C33.9664 2.14304 32.6769 1.4122 31.3122 1.11193C29.9993 0.823043 28.6392 0.823043 27.3262 1.11193C25.9615 1.4122 24.6721 2.14304 22.0932 3.60472L14.7962 7.74068L7.56585 11.9921C5.01058 13.4946 3.73294 14.2459 2.79053 15.2776C1.88387 16.2702 1.20383 17.4481 0.797535 18.7296C0.375214 20.0616 0.363426 21.5437 0.339863 24.5079L0.273193 32.8953L0.339863 41.2826C0.363426 44.2468 0.375214 45.7289 0.797535 47.0609C1.20383 48.3424 1.88387 49.5203 2.79053 50.5129C3.73294 51.5447 5.01057 52.2959 7.56584 53.7984L14.7962 58.0499L22.0932 62.1858C24.6721 63.6475 25.9615 64.3783 27.3262 64.6786C28.6392 64.9675 29.9993 64.9675 31.3122 64.6786C32.6769 64.3783 33.9664 63.6475 36.5452 62.1858L43.8422 58.0499L51.0726 53.7984C53.6278 52.2959 54.9055 51.5447 55.8479 50.5129C56.7546 49.5203 57.4346 48.3424 57.8409 47.0609C58.2632 45.7289 58.275 44.2468 58.2986 41.2827L58.3652 32.8953L58.2986 24.5079C58.275 21.5437 58.2632 20.0616 57.8409 18.7296C57.4346 17.4481 56.7546 16.2702 55.8479 15.2776C54.9055 14.2459 53.6279 13.4946 51.0726 11.9921L43.8422 7.74068L36.5452 3.60472Z" fill="#F5F6FB"/>
</g>
<defs>
<filter id="filter0_b" x="-7.72656" y="-7.10474" width="74.092" height="80" filterUnits="userSpaceOnUse" color-interpolation-filters="sRGB">
<feFlood flood-opacity="0" result="BackgroundImageFix"/>
<feGaussianBlur in="BackgroundImage" stdDeviation="4"/>
<feComposite in2="SourceAlpha" operator="in" result="effect1_backgroundBlur"/>
<feBlend mode="normal" in="SourceGraphic" in2="effect1_backgroundBlur" result="shape"/>
</filter>
</defs>
</svg>
